sistemas-digitais/t2/alu.vcd
$date
  Sun May 30 16:00:49 2021
$end
$version
  GHDL v0
$end
$timescale
  1 fs
$end
$scope module standard $end
$upscope $end
$scope module numeric_bit $end
$upscope $end
$scope module alu_tb $end
$var reg 4 ! op[3:0] $end
$var reg 8 " a[7:0] $end
$var reg 8 # b[7:0] $end
$var reg 8 $ r[7:0] $end
$var reg 1 % z $end
$var reg 1 & ov $end
$var reg 1 ' co $end
$var reg 3 ( flags[2:0] $end
$scope module tst $end
$var reg 8 ) a[7:0] $end
$var reg 8 * b[7:0] $end
$var reg 8 + f[7:0] $end
$var reg 4 , s[3:0] $end
$var reg 1 - z $end
$var reg 1 . ov $end
$var reg 1 / co $end
$var reg 9 0 zeros[8:0] $end
$var reg 9 1 signed_a[8:0] $end
$var reg 9 2 signed_b[8:0] $end
$var reg 9 3 signed_f[8:0] $end
$var reg 8 4 ss[7:0] $end
$upscope $end
$upscope $end
$enddefinitions $end
#0
b0000 !
b00000000 "
b00000000 #
b00000000 $
0%
0&
0'
b000 (
b00000000 )
b00000000 *
b00000000 +
b0000 ,
0-
0.
0/
b000000000 0
b000000000 1
b000000000 2
b000000000 3
b00000000 4
#2000000
b01111111 "
b00001001 #
b00001001 $
b01111111 )
b00001001 *
b00001001 +
b001111111 1
b000001001 2
b000001001 3
b00001001 4
#4000000
#6000000
b00001110 "
b00000111 #
b00000110 $
b00001110 )
b00000111 *
b00000110 +
b000001110 1
b000000111 2
b000000110 3
b00000110 4
#8000000
#10000000
b01110000 "
b00001111 #
b00000000 $
b01110000 )
b00001111 *
b00000000 +
b001110000 1
b000001111 2
b000000000 3
b00000000 4
#12000000
#14000000
b01111111 "
b00000000 #
b01111111 )
b00000000 *
b001111111 1
b000000000 2
#16000000
#18000000
b10000001 #
b00000001 $
b10000001 *
b00000001 +
b110000001 2
b000000001 3
b00000001 4
#20000000
#22000000
b0001 !
b00001001 #
b01111111 $
0'
b000 (
b00001001 *
b01111111 +
b0001 ,
0/
b000001001 2
b001111111 3
b01111111 4
#24000000
#26000000
b00001110 "
b00000111 #
b00001111 $
b00001110 )
b00000111 *
b00001111 +
b000001110 1
b000000111 2
b000001111 3
b00001111 4
#28000000
#30000000
b01110000 "
b00001111 #
b01111111 $
b01110000 )
b00001111 *
b01111111 +
b001110000 1
b000001111 2
b001111111 3
b01111111 4
#32000000
#34000000
b01111111 "
b01111111 #
b01111111 )
b01111111 *
b001111111 1
b001111111 2
#36000000
#38000000
b10000001 #
b11111111 $
1'
b001 (
b10000001 *
b11111111 +
1/
b110000001 2
b111111111 3
b11111111 4
#40000000
#42000000
b0010 !
b00000001 "
b00000001 #
b00000010 $
0&
0'
b000 (
b00000001 )
b00000001 *
b00000010 +
b0010 ,
0.
0/
b000000001 1
b000000001 2
b000000010 3
b00000010 4
#44000000
#46000000
b11111111 #
b00000000 $
b11111111 *
b00000000 +
b111111111 2
b000000000 3
b00000000 4
#48000000
#50000000
b01111111 "
b00000001 #
1&
b010 (
b01111111 )
b00000001 *
1.
b001111111 1
b000000001 2
b010000000 3
b10000000 4
#52000000
#54000000
b10000000 "
b11111111 #
b11111111 $
1&
1'
b011 (
b10000000 )
b11111111 *
b11111111 +
1.
1/
b110000000 1
b111111111 2
b101111111 3
b01111111 4
#56000000
#58000000
b10000000 #
b10000000 $
0&
b001 (
b10000000 *
b10000000 +
0.
b110000000 2
b100000000 3
b00000000 4
#60000000
#62000000
b0110 !
b00000001 "
b11111111 #
b00000010 $
0'
b000 (
b00000001 )
b11111111 *
b00000010 +
b0110 ,
0/
b000000001 1
b111111111 2
b000000010 3
b00000010 4
#64000000
#66000000
b00000001 #
b00000000 $
b00000001 *
b00000000 +
b000000001 2
b000000000 3
b00000000 4
#68000000
#70000000
b01111111 "
b11111111 #
1&
b010 (
b01111111 )
b11111111 *
1.
b001111111 1
b111111111 2
b010000000 3
b10000000 4
#72000000
#74000000
b10000000 "
b00000001 #
b11111111 $
1&
1'
b011 (
b10000000 )
b00000001 *
b11111111 +
1.
1/
b110000000 1
b000000001 2
b101111111 3
b01111111 4
#76000000
#78000000
b10000000 #
b00000000 $
0&
0'
b000 (
b10000000 *
b00000000 +
0.
0/
b110000000 2
b000000000 3
b00000000 4
#80000000
#82000000
b0111 !
b00000001 "
b00000001 #
b11111110 $
1'
b001 (
b00000001 )
b00000001 *
b11111110 +
b0111 ,
1/
b000000001 1
b000000001 2
b111111110 3
b11111110 4
#84000000
#86000000
b11111111 "
b00000000 $
0'
b000 (
b11111111 )
b00000000 +
0/
b111111111 1
b000000000 3
b00000000 4
#88000000
#90000000
b00000001 "
b11111111 #
b00000001 )
b11111111 *
b000000001 1
b111111111 2
#92000000
#94000000
b01111111 "
b10000000 #
b01111111 )
b10000000 *
b001111111 1
b110000000 2
#96000000
#98000000
b10000000 "
b01111111 #
b10000000 )
b01111111 *
b110000000 1
b001111111 2
#100000000
#102000000
b1100 !
b00000000 "
b11111111 #
b00000000 )
b11111111 *
b1100 ,
b000000000 1
b111111111 2
#104000000
#106000000
b11111100 "
b00000001 #
b00000010 $
b11111100 )
b00000001 *
b00000010 +
b111111100 1
b000000001 2
b000000010 3
b00000010 4
#108000000
#110000000
b11110000 "
b00001111 #
b00000000 $
b11110000 )
b00001111 *
b00000000 +
b111110000 1
b000001111 2
b000000000 3
b00000000 4
#112000000
#114000000
b0000 !
b00000001 "
b00000001 #
b00000001 $
b00000001 )
b00000001 *
b00000001 +
b0000 ,
b000000001 1
b000000001 2
b000000001 3
b00000001 4
